{
"DeployDescriptor":
  [
    {
      "Property" :"RunAs",
      "Assign" : "workbench"
    },
    {
      "Property" :"Host",
      "Assign" : "workbench"
    },
    {
      "ApplyOn" : {
       "Type":"Job", 
		"@" : "CleanUpTheMess.*"
      },
      "Property" :"Command",
      "Replace" : [ {"(.*)/home/workbench/ctm/runtime/(.*)/home/workbench/ctm/runtime/(.*)/home/workbench/ctm/runtime/(.*)" : "$1/home$2/home$3/home$4"} ]
    },
    {
      "ApplyOn" : {
       "Type":"Job",
		"@" : "DoSometingWithIt.*"
      },
      "Property" :"Command",
      "Replace" : [ {"(.*)/home/workbench/ctm/runtime/(.*)/home/workbench/ctm/runtime/(.*)/home/workbench/ctm/runtime/(.*)/home/workbench/ctm/runtime/(.*)/home/workbench/ctm/runtime/(.*)/home/workbench/ctm/runtime/(.*)" : "$1/home$2/home$3/home$4/home$5/home$6/home$7"} ]
    },
        
    {
      "Property" :"Command",
      "Replace" : [ {"(.*)/home/workbench/ctm/runtime/(.*)" : "$1/home$2"} ]
    }
  ]
}

